66.249.69.75 - - [27/Aug/2017:03:02:39 -0400] "GET /index.php?route=product/product&path=59&product_id=61&limit=75 HTTP/1.1" 200 41864 luxossorize.com "-" "Mozilla/5.0 (compatible; Googlebot/2.1; +http://www.google.com/bot.html)" "-"
66.249.69.73 - - [27/Aug/2017:03:20:18 -0400] "GET /index.php?route=product/product&path=20_62&product_id=68&limit=75 HTTP/1.1" 200 44873 luxossorize.com "-" "Mozilla/5.0 (compatible; Googlebot/2.1; +http://www.google.com/bot.html)" "-"
66.249.69.73 - - [27/Aug/2017:03:21:03 -0400] "GET /index.php?route=product/product&path=24&limit=75&product_id=74 HTTP/1.1" 200 41860 luxossorize.com "-" "Mozilla/5.0 (compatible; Googlebot/2.1; +http://www.google.com/bot.html)" "-"
